大数据分析——基于R语言 - 12 从内存到外存：用数据库管理数据
…
在上面的函数中，我们知道在函数中需要声明3个要素，分别是数据库连接、表名称和数据。载入之后，我们可以观察一下数据库中都有哪些表：

dbListTables(con)

[1] "diamonds" "iris"    

如果要取出里面的表格，比如我们想要取出iris数据集，有两种方法：

# 方法1：使用dbReadTable
con %>% 
  dbReadTable("iris") %>% 
  as_tibble()

# A tibble: 150 × 5
   Sepal.Length Sepal.Width Petal.Length Petal.Width Species
          <dbl>       <dbl>        <dbl>       <dbl> <fct>  
 1          5.1         3.5          1.4         0.2 setosa 
 2          4.9         3            1.4         0.2 setosa 
 3          4.7         3.2          1.3         0.2 setosa 
 4          4.6         3.1          1.5         0.2 setosa 
 5          5           3.6          1.4         0.2 setosa 
 6          5.4         3.9          1.7         0.4 setosa 
 7          4.6         3.4          1.4         0.3 setosa 
 8          5           3.4          1.5         0.2 setosa 
 9          4.4         2.9          1.4         0.2 setosa 
10          4.9         3.1          1.5         0.1 setosa 
# ℹ 140 more rows

# 方法2：使用tbl
tbl(con,"iris") %>% 
  as_tibble()

# A tibble: 150 × 5
   Sepal.Length Sepal.Width Petal.Length Petal.Width Species
          <dbl>       <dbl>        <dbl>       <dbl> <fct>  
 1          5.1         3.5          1.4         0.2 setosa 
 2          4.9         3            1.4         0.2 setosa 
 3          4.7         3.2          1.3         0.2 setosa 
 4          4.6         3.1          1.5         0.2 setosa 
 5          5           3.6          1.4         0.2 setosa 
 6          5.4         3.9          1.7         0.4 setosa 
 7          4.6         3.4          1.4         0.3 setosa 
 8          5           3.4          1.5         0.2 setosa 
 9          4.4         2.9          1.4         0.2 setosa 
10          4.9         3.1          1.5         0.1 setosa 
# ℹ 140 more rows

在上面两种方法中，方法1的as_tibble其实可以去除，我们只是为了显示方便，所以进行这一步操作，但是即使没有这样操作也可以得到传统的数据框结构。在方法2中，则必须使用as_tibble表示对数据进行调用，事实上也可以使用collect函数对数据进行提取。当然， 还有一种方案就是直接写SQL语句对数据进行查询，方法如下：

sql <- "
  SELECT *
  FROM iris
"
as_tibble(dbGetQuery(con, sql))

# A tibble: 150 × 5
   Sepal.Length Sepal.Width Petal.Length Petal.Width Species
          <dbl>       <dbl>        <dbl>       <dbl> <fct>  
 1          5.1         3.5          1.4         0.2 setosa 
 2          4.9         3            1.4         0.2 setosa 
 3          4.7         3.2          1.3         0.2 setosa 
 4          4.6         3.1          1.5         0.2 setosa 
 5          5           3.6          1.4         0.2 setosa 
 6          5.4         3.9          1.7         0.4 setosa 
 7          4.6         3.4          1.4         0.3 setosa 
 8          5           3.4          1.5         0.2 setosa 
 9          4.4         2.9          1.4         0.2 setosa 
10          4.9         3.1          1.5         0.1 setosa 
# ℹ 140 more rows
…
需要注意的是，我们在这些操作中都没有对数据进行采集，因此这些赋值对象都还是一个数据连接，而不是R中的数据框。如果需要转化为数据框，可以这样操作：

diamonds_db %>% as_tibble()

# A tibble: 53,940 × 10
   carat cut       color clarity depth table price     x     y     z
   <dbl> <fct>     <fct> <fct>   <dbl> <dbl> <int> <dbl> <dbl> <dbl>
 1  0.23 Ideal     E     SI2      61.5    55   326  3.95  3.98  2.43
 2  0.21 Premium   E     SI1      59.8    61   326  3.89  3.84  2.31
 3  0.23 Good      E     VS1      56.9    65   327  4.05  4.07  2.31
 4  0.29 Premium   I     VS2      62.4    58   334  4.2   4.23  2.63
 5  0.31 Good      J     SI2      63.3    58   335  4.34  4.35  2.75
 6  0.24 Very Good J     VVS2     62.8    57   336  3.94  3.96  2.48
 7  0.24 Very Good I     VVS1     62.3    57   336  3.95  3.98  2.47
 8  0.26 Very Good H     SI1      61.9    55   337  4.07  4.11  2.53
 9  0.22 Fair      E     VS2      65.1    61   337  3.87  3.78  2.49
10  0.23 Very Good H     VS1      59.4    61   338  4     4.05  2.39
# ℹ 53,930 more rows

big_diamonds_db %>% collect()

# A tibble: 1,655 × 5
   carat cut       color clarity price
   <dbl> <fct>     <fct> <fct>   <int>
 1  1.54 Premium   E     VS2     15002
 2  1.19 Ideal     F     VVS1    15005
 3  2.1  Premium   I     SI1     15007
 4  1.69 Ideal     D     SI1     15011
 5  1.5  Very Good G     VVS2    15013
 6  1.73 Very Good G     VS1     15014
 7  2.02 Premium   G     SI2     15014
 8  2.05 Very Good F     SI2     15017
 9  1.5  Very Good F     VS1     15022
10  1.82 Very Good G     SI1     15025
# ℹ 1,645 more rows
…
